<?xml version="1.0" encoding="utf-8"?>
<!-- Generator: Adobe Illustrator 17.0.0, SVG Export Plug-In . SVG Version: 6.00 Build 0)  -->
<!DOCTYPE svg PUBLIC "-//W3C//DTD SVG 1.1//EN" "http://www.w3.org/Graphics/SVG/1.1/DTD/svg11.dtd">
<svg version="1.1" id="Слой_1" xmlns="http://www.w3.org/2000/svg" xmlns:xlink="http://www.w3.org/1999/xlink" x="0px" y="0px"
	 width="31.895px" height="10.411px" viewBox="0 0 31.895 10.411" enable-background="new 0 0 31.895 10.411" xml:space="preserve">
<line fill="#FFFFFF" stroke="#1E1E1E" stroke-miterlimit="10" x1="0" y1="5.179" x2="31.188" y2="5.179"/>
<polyline fill="none" stroke="#1E1E1E" stroke-miterlimit="10" points="26.336,0.354 31.188,5.205 26.336,10.057 "/>
</svg>
