<?xml version="1.0" encoding="utf-8"?>
<!-- Generator: Adobe Illustrator 17.0.0, SVG Export Plug-In . SVG Version: 6.00 Build 0)  -->
<!DOCTYPE svg PUBLIC "-//W3C//DTD SVG 1.1//EN" "http://www.w3.org/Graphics/SVG/1.1/DTD/svg11.dtd">
<svg version="1.1" id="Слой_1" xmlns="http://www.w3.org/2000/svg" xmlns:xlink="http://www.w3.org/1999/xlink" x="0px" y="0px"
	 width="8.918px" height="5.166px" viewBox="0 0 8.918 5.166" enable-background="new 0 0 8.918 5.166" xml:space="preserve">
<polyline fill="none" stroke="#1fcca3" stroke-linecap="round" stroke-miterlimit="10" points="8.418,0.5 4.459,4.459 0.5,0.5 "/>
</svg>
