<?xml version="1.0" encoding="utf-8"?>
<!-- Generator: Adobe Illustrator 17.0.0, SVG Export Plug-In . SVG Version: 6.00 Build 0)  -->
<!DOCTYPE svg PUBLIC "-//W3C//DTD SVG 1.1//EN" "http://www.w3.org/Graphics/SVG/1.1/DTD/svg11.dtd">
<svg version="1.1" id="Слой_1" xmlns="http://www.w3.org/2000/svg" xmlns:xlink="http://www.w3.org/1999/xlink" x="0px" y="0px"
	 width="12.616px" height="22.403px" viewBox="0 0 12.616 22.403" enable-background="new 0 0 12.616 22.403" xml:space="preserve">
<polyline fill="none" stroke="#1E1E1E" stroke-width="2" stroke-linecap="round" stroke-miterlimit="10" points="1,1 11.202,11.202 
	1,21.403 "/>
</svg>
