<?xml version="1.0" encoding="utf-8"?>
<!-- Generator: Adobe Illustrator 17.0.0, SVG Export Plug-In . SVG Version: 6.00 Build 0)  -->
<!DOCTYPE svg PUBLIC "-//W3C//DTD SVG 1.1//EN" "http://www.w3.org/Graphics/SVG/1.1/DTD/svg11.dtd">
<svg id="twitter-normal" fill="#1e1e1e" version="1.1" xmlns="http://www.w3.org/2000/svg" xmlns:xlink="http://www.w3.org/1999/xlink" x="0px" y="0px"
	 width="20.763px" height="16.842px" viewBox="288.087 413.697 20.763 16.842"
	 enable-background="new 288.087 413.697 20.763 16.842" xml:space="preserve">
<g>
	<g>
		<path d="M306.416,416.363c0.932-0.573,1.549-1.353,1.851-2.345c-0.906,0.481-1.81,0.811-2.711,0.994
			c-0.811-0.872-1.837-1.315-3.068-1.315c-1.203,0-2.22,0.422-3.049,1.244c-0.824,0.827-1.241,1.832-1.241,3.004
			c0,0.357,0.045,0.675,0.135,0.945c-3.548-0.121-6.484-1.593-8.797-4.425c-0.392,0.693-0.588,1.399-0.588,2.13
			c0,1.501,0.633,2.689,1.897,3.562c-0.721-0.062-1.357-0.244-1.897-0.542c0,1.072,0.315,1.967,0.946,2.754
			c0.633,0.779,1.447,1.277,2.439,1.489c-0.359,0.092-0.739,0.136-1.13,0.136c-0.359,0-0.615-0.03-0.766-0.096
			c0.266,0.873,0.766,1.582,1.489,2.123c0.721,0.544,1.551,0.832,2.481,0.858c-1.537,1.205-3.293,1.801-5.28,1.801
			c-0.487,0-0.832-0.006-1.04-0.044c1.958,1.271,4.136,1.903,6.547,1.903c2.467,0,4.647-0.625,6.545-1.876
			c1.897-1.244,3.298-2.777,4.197-4.583c0.904-1.804,1.352-3.682,1.352-5.642v-0.539c0.874-0.657,1.582-1.398,2.122-2.216
			C308.066,416.018,307.256,416.247,306.416,416.363z"/>
	</g>
</g>
</svg>
