<?xml version="1.0" encoding="utf-8"?>
<!-- Generator: Adobe Illustrator 17.0.0, SVG Export Plug-In . SVG Version: 6.00 Build 0)  -->
<!DOCTYPE svg PUBLIC "-//W3C//DTD SVG 1.1//EN" "http://www.w3.org/Graphics/SVG/1.1/DTD/svg11.dtd">
<svg version="1.1" id="Слой_1" xmlns="http://www.w3.org/2000/svg" xmlns:xlink="http://www.w3.org/1999/xlink" x="0px" y="0px"
     width="38.448px" height="39.292px" viewBox="0 0 38.448 39.292" enable-background="new 0 0 38.448 39.292" xml:space="preserve">
<g>
		<path id="SVGID_1_" fill="#1fcca3" d="M9.824,13.238v-1.707h18.797v1.707H9.824L9.824,13.238z M26.914,15.802v-1.707h1.707v1.707H26.914
			L26.914,15.802z M9.824,15.802v-1.707h1.71v1.707H9.824L9.824,15.802z M18.369,7.688v-1.71h1.71v1.71H18.369L18.369,7.688z
			 M20.933,7.688v-1.71h1.707v1.71H20.933L20.933,7.688z M15.805,7.688v-1.71h1.71v1.71H15.805L15.805,7.688z M13.241,7.688v-1.71
			h1.71v1.71H13.241L13.241,7.688z M23.497,7.688v-1.71h1.707v1.71H23.497L23.497,7.688z M38.448,35.875v1.71
			c-1.391,0-2.043,0.349-2.801,0.751c-0.84,0.448-1.793,0.956-3.609,0.956c-0.481,0-0.89-0.033-1.252-0.096
			c-1.051-0.165-1.747-0.534-2.359-0.86c-0.761-0.405-1.417-0.751-2.805-0.751c-1.387,0-2.043,0.349-2.801,0.751
			c-0.84,0.448-1.789,0.956-3.605,0.956s-2.768-0.508-3.608-0.956c-0.758-0.402-1.41-0.751-2.801-0.751
			c-1.381,0-2.037,0.346-2.795,0.751c-0.61,0.326-1.302,0.696-2.353,0.86c-0.362,0.063-0.771,0.096-1.252,0.096
			c-1.816,0-2.765-0.508-3.605-0.956C2.043,37.934,1.387,37.585,0,37.585v-1.71c1.816,0,2.765,0.507,3.605,0.956
			c0.751,0.399,1.401,0.745,2.755,0.751L1.325,22.478c-0.138-0.415,0.059-0.87,0.458-1.048l4.624-2.083v-8.245
			c0-1.41,1.15-2.561,2.564-2.561h1.282V4.271c0-0.471,0.382-0.854,0.854-0.854h7.263V0h1.71v3.417h7.26
			c0.474,0,0.857,0.382,0.857,0.854v4.271h1.282c1.411,0,2.561,1.15,2.561,2.561v8.249l4.624,2.08
			c0.399,0.178,0.6,0.633,0.461,1.048l-5.035,15.103c1.354-0.007,2.004-0.353,2.755-0.751C35.68,36.382,36.632,35.875,38.448,35.875
			L38.448,35.875z M3.19,22.669l0.613,1.839l14.566-6.693v-1.974L3.19,22.669L3.19,22.669z M26.485,5.125H11.959v3.417h14.526V5.125
			L26.485,5.125z M30.331,11.102c0-0.471-0.386-0.854-0.857-0.854h-2.135H11.106H8.97c-0.471,0-0.854,0.382-0.854,0.854v7.478
			l10.756-4.838c0.221-0.102,0.478-0.102,0.702,0l10.756,4.838V11.102L30.331,11.102z M35.258,22.669l-15.179-6.828v1.974
			l14.566,6.693L35.258,22.669L35.258,22.669z M34.101,26.139l-14.022-6.442v10.199h-1.71V19.697L4.347,26.136L8.08,37.344
			c0.412-0.135,0.755-0.316,1.13-0.517c0.837-0.445,1.786-0.952,3.595-0.952c1.816,0,2.768,0.507,3.605,0.956
			c0.761,0.405,1.414,0.755,2.804,0.755c1.387,0,2.043-0.349,2.801-0.755c0.84-0.448,1.789-0.956,3.605-0.956
			c1.816,0,2.765,0.507,3.605,0.952c0.379,0.201,0.722,0.382,1.137,0.517L34.101,26.139L34.101,26.139z"/>
</g>
</svg>
