<?xml version="1.0" encoding="utf-8"?>
<!-- Generator: Adobe Illustrator 17.0.0, SVG Export Plug-In . SVG Version: 6.00 Build 0)  -->
<!DOCTYPE svg PUBLIC "-//W3C//DTD SVG 1.1//EN" "http://www.w3.org/Graphics/SVG/1.1/DTD/svg11.dtd">
<svg version="1.1" id="Слой_1" xmlns="http://www.w3.org/2000/svg" xmlns:xlink="http://www.w3.org/1999/xlink" x="0px" y="0px"
	 width="47.079px" height="38.253px" viewBox="0 0 47.079 38.253" enable-background="new 0 0 47.079 38.253" xml:space="preserve">
<g>
		<path fill="#1fcca3" id="SVGID_1_" d="M46.1,12.766h-1.964v0.49c0,1.354-1.099,2.455-2.45,2.455c-0.171,0-0.334-0.017-0.491-0.049v1.522
			c0,1.354-1.101,2.455-2.452,2.455c-1.353,0-2.454-1.101-2.454-2.455v-4.418h-25.5v4.418c0,1.354-1.101,2.455-2.452,2.455
			c-1.353,0-2.452-1.101-2.452-2.455v-1.522c-0.159,0.032-0.323,0.049-0.491,0.049c-1.351,0-2.452-1.101-2.452-2.455v-0.49h-1.96
			C0.439,12.766,0,12.325,0,11.783V7.855c0-0.542,0.439-0.981,0.981-0.981h1.96V6.383c0-1.354,1.101-2.454,2.452-2.454
			c0.169,0,0.333,0.015,0.491,0.049V2.455C5.885,1.103,6.984,0,8.337,0c1.351,0,2.452,1.103,2.452,2.455v4.419h25.5V2.455
			C36.289,1.101,37.39,0,38.742,0c1.351,0,2.452,1.101,2.452,2.455v1.523c0.157-0.034,0.321-0.049,0.491-0.049
			c1.351,0,2.45,1.101,2.45,2.454v0.491H46.1c0.539,0,0.979,0.439,0.979,0.981v3.928C47.079,12.325,46.638,12.766,46.1,12.766
			L46.1,12.766z M2.942,8.838H1.962v1.964h0.979V8.838L2.942,8.838z M5.885,6.383c0-0.272-0.22-0.491-0.491-0.491
			c-0.27,0-0.49,0.22-0.49,0.491v6.873c0,0.272,0.22,0.491,0.49,0.491c0.272,0,0.491-0.22,0.491-0.491V6.383L5.885,6.383z
			 M8.826,2.455c0-0.27-0.22-0.491-0.49-0.491c-0.27,0-0.49,0.221-0.49,0.491v3.928v6.873v3.928c0,0.27,0.22,0.491,0.49,0.491
			c0.27,0,0.49-0.221,0.49-0.491V2.455L8.826,2.455z M36.289,8.838h-3.923c0,0.542-0.439,0.981-0.979,0.981
			c-0.544,0-0.983-0.439-0.983-0.981h-1.959c0,0.542-0.441,0.981-0.983,0.981c-0.54,0-0.981-0.439-0.981-0.981h-1.961
			c0,0.542-0.439,0.981-0.981,0.981s-0.981-0.439-0.981-0.981h-1.962c0,0.542-0.439,0.981-0.979,0.981
			c-0.542,0-0.981-0.439-0.981-0.981h-1.962c0,0.542-0.439,0.981-0.981,0.981c-0.542,0-0.981-0.439-0.981-0.981h-3.923v1.964h25.5
			V8.838L36.289,8.838z M39.232,13.256V6.383V2.455c0-0.27-0.22-0.491-0.49-0.491s-0.491,0.221-0.491,0.491v14.728
			c0,0.27,0.221,0.491,0.491,0.491s0.49-0.221,0.49-0.491V13.256L39.232,13.256z M42.174,6.383c0-0.272-0.218-0.491-0.488-0.491
			c-0.272,0-0.491,0.22-0.491,0.491v6.873c0,0.272,0.219,0.491,0.491,0.491c0.27,0,0.488-0.22,0.488-0.491V6.383L42.174,6.383z
			 M45.115,8.838h-0.979v1.964h0.979V8.838L45.115,8.838z M23.54,38.253c-5.385,0-9.767-4.387-9.767-9.777
			c0-5.392,4.382-9.777,9.767-9.777s9.767,4.385,9.767,9.777C33.307,33.866,28.925,38.253,23.54,38.253L23.54,38.253z M23.54,20.662
			c-4.303,0-7.805,3.506-7.805,7.813s3.502,7.812,7.805,7.812c4.304,0,7.803-3.504,7.803-7.812S27.844,20.662,23.54,20.662
			L23.54,20.662z M23.54,31.42c-1.623,0-2.943-1.32-2.943-2.945c0-1.626,1.321-2.947,2.943-2.947c1.623,0,2.942,1.321,2.942,2.947
			C26.481,30.1,25.162,31.42,23.54,31.42L23.54,31.42z M23.54,27.494c-0.542,0-0.981,0.439-0.981,0.981
			c0,0.54,0.439,0.979,0.981,0.979c0.54,0,0.981-0.439,0.981-0.979C24.521,27.933,24.08,27.494,23.54,27.494L23.54,27.494z
			 M24.232,34.978c-0.191,0.193-0.442,0.287-0.692,0.287v0.081c-3.786,0-6.864-3.08-6.866-6.869c0-0.253,0.095-0.505,0.287-0.696
			c0.383-0.385,1.005-0.385,1.386,0c0.193,0.189,0.289,0.442,0.289,0.694c0,2.587,2.009,4.711,4.548,4.895
			c0.351-0.138,0.767-0.064,1.049,0.218C24.617,33.975,24.617,34.597,24.232,34.978L24.232,34.978z M30.119,29.169
			c-0.383,0.383-1.005,0.383-1.386,0c-0.192-0.191-0.287-0.444-0.287-0.694c0-2.589-2.013-4.713-4.551-4.897
			c-0.351,0.138-0.765,0.064-1.049-0.218c-0.382-0.385-0.382-1.006,0-1.39c0.191-0.193,0.442-0.287,0.694-0.287v-0.081
			c3.784,0,6.864,3.08,6.864,6.869C30.406,28.725,30.309,28.977,30.119,29.169L30.119,29.169z"/>
</g>
</svg>
